^C:\USERS\JALORD\DROPBOX\CODE\VDJ_VC++\PLUGIN.RC
/D _VC80_UPGRADE=0x0710 /l"0x0409" /nologo /fo"Debug\plugin.res" plugin.rc /D _VC80_UPGRADE=0x0710 /l"0x0409" /nologo /fo"Debug\plugin.res" C:\USERS\JALORD\DROPBOX\CODE\VDJ_VC++\PLUGIN.RC
^C:\USERS\JALORD\DROPBOX\CODE\VDJ_VC++\DEBUG\RESONANCE_MANIFEST.RC
/nologo /fo"Debug\Resonance.dll.embed.manifest.res" Debug\Resonance_manifest.rc /nologo /fo"Debug\Resonance.dll.embed.manifest.res" C:\USERS\JALORD\DROPBOX\CODE\VDJ_VC++\DEBUG\RESONANCE_MANIFEST.RC
