^C:\USERS\JALORD\DROPBOX\CODE\VDJ_VC++\PLUGIN.RC
C:\USERS\JALORD\DROPBOX\CODE\VDJ_VC++\RESOURCE.H
C:\PROGRAM FILES\MICROSOFT SDKS\WINDOWS\V7.0A\INCLUDE\WINDOWS.H
C:\PROGRAM FILES\MICROSOFT SDKS\WINDOWS\V7.0A\INCLUDE\SDKDDKVER.H
C:\PROGRAM FILES\MICROSOFT SDKS\WINDOWS\V7.0A\INCLUDE\WINRESRC.H
C:\PROGRAM FILES\MICROSOFT SDKS\WINDOWS\V7.0A\INCLUDE\WINUSER.RH
C:\PROGRAM FILES\MICROSOFT SDKS\WINDOWS\V7.0A\INCLUDE\COMMCTRL.RH
C:\PROGRAM FILES\MICROSOFT SDKS\WINDOWS\V7.0A\INCLUDE\DDE.RH
C:\PROGRAM FILES\MICROSOFT SDKS\WINDOWS\V7.0A\INCLUDE\WINNT.RH
C:\PROGRAM FILES\MICROSOFT SDKS\WINDOWS\V7.0A\INCLUDE\DLGS.H
C:\PROGRAM FILES\MICROSOFT SDKS\WINDOWS\V7.0A\INCLUDE\WINVER.H
C:\PROGRAM FILES\MICROSOFT SDKS\WINDOWS\V7.0A\INCLUDE\SPECSTRINGS.H
C:\PROGRAM FILES\MICROSOFT SDKS\WINDOWS\V7.0A\INCLUDE\SAL_SUPP.H
C:\PROGRAM FILES\MICROSOFT SDKS\WINDOWS\V7.0A\INCLUDE\SPECSTRINGS_SUPP.H
C:\PROGRAM FILES\MICROSOFT VISUAL STUDIO 10.0\VC\INCLUDE\SAL.H
C:\PROGRAM FILES\MICROSOFT SDKS\WINDOWS\V7.0A\INCLUDE\DRIVERSPECS.H
C:\PROGRAM FILES\MICROSOFT SDKS\WINDOWS\V7.0A\INCLUDE\SDV_DRIVERSPECS.H
C:\PROGRAM FILES\MICROSOFT SDKS\WINDOWS\V7.0A\INCLUDE\VERRSRC.H
C:\USERS\JALORD\DROPBOX\CODE\VDJ_VC++\BITMAP.BMP
^C:\USERS\JALORD\DROPBOX\CODE\VDJ_VC++\DEBUG\RESONANCE_MANIFEST.RC
C:\USERS\JALORD\DROPBOX\CODE\VDJ_VC++\DEBUG\RESONANCE.DLL.EMBED.MANIFEST
