^C:\Users\jalord\Dropbox\Code\vdj_vc++\Resonance.vcxproj
C:\Users\jalord\Documents\VirtualDJ\Plugins\Other\Resonance.lib
C:\Users\jalord\Documents\VirtualDJ\Plugins\Other\Resonance.lib
C:\Users\jalord\Documents\VirtualDJ\Plugins\Other\Resonance.exp
C:\Users\jalord\Documents\VirtualDJ\Plugins\Other\Resonance.exp
